module gitlab.com/hectorjsmith/fail2ban-prometheus-exporter

go 1.15

require (
	github.com/kisielk/og-rek v1.1.0
	github.com/nlpodyssey/gopickle v0.1.0
	github.com/prometheus/client_golang v1.9.0
	gopkg.in/alecthomas/kingpin.v2 v2.2.6
)
